Lab4 Individual/Team
…
## offenseState
##  Ariz.   Ark.   Fla.    Ga.   Ill.   Iowa   Kan.    Mo.   Ohio  Okla.  Texas 
##      1      1      2      1      1      1      1      1      1      2      1

defenseState <- inner_join(defClean, bioClean, by='Name')
defenseState <- defenseState %>% 
  select(Name, State) %>% 
  unique()
defenseState

## # A tibble: 30 x 2
##    Name              State    
##    <fct>             <chr>    
##  1 White, Lawrence   " Calif."
##  2 Rose, Mike        " Ohio"  
##  3 Vance, O'Rien     " Iowa"  
##  4 Eisworth, Greg    " Texas" 
##  5 Johnson , Anthony " Fla."  
##  6 Petersen, Zach    " Iowa"  
##  7 Hummel, Jake      " Iowa"  
##  8 Uwazurike, Eyioma " Mich." 
##  9 Azunna, Arnold    " Texas" 
## 10 Kyle, Tayvonn     " Ga."   
## # ... with 20 more rows
…
def2018_2019new <- def2018_2019[def2018_2019$Name == 'Bailey, JaQuan' | def2018_2019$Name == 'Eisworth, Greg' | def2018_2019$Name == 'Lewis, Braxton' | 
                             def2018_2019$Name == 'Hummel, Jake' | def2018_2019$Name == 'Johnson, Anthony' | def2018_2019$Name == 'Rose, Mike' |
                             def2018_2019$Name == 'Uwazurike, Eyioma' | def2018_2019$Name == "Vance, O'Rien" | def2018_2019$Name == 'White, Lawrence',]
def2018_2019new

## # A tibble: 144 x 4
##    Name            Year Defense_Skill  stat
##    <chr>          <dbl> <chr>         <dbl>
##  1 Bailey, JaQuan  2018 Tackles_Solo   16  
##  2 Bailey, JaQuan  2018 Tackles_ASST   30  
##  3 Bailey, JaQuan  2018 Tackles_TFL    14.5
##  4 Bailey, JaQuan  2018 Tackles_Sack    8  
##  5 Bailey, JaQuan  2018 Turnover_FF     1  
##  6 Bailey, JaQuan  2018 Turnover_FR     1  
##  7 Bailey, JaQuan  2018 Turnover_INT    0  
##  8 Bailey, JaQuan  2018 Pass_QBH        3  
##  9 Bailey, JaQuan  2018 Pass_PB         5  
## 10 Eisworth, Greg  2018 Tackles_Solo   56  
## # ... with 134 more rows
…
